{
  "$schema": "https://themost-framework.github.io/themost/models/2018/2/schema.json",
  "@id": "https://universis.io/schemas/StudentBookRegistration",
  "name": "StudentBookRegistration",
  "title": "Student book registrations",
  "hidden": false,
  "sealed": true,
  "version": "1.0",
  "source": "StudentBookRegistrationBase",
  "view": "StudentBookRegistrationData",
  "fields": [
      {
          "@id": "https://themost.io/schemas/id",
          "name": "id",
          "title": "Id",
          "description": "Id",
          "type": "Text",
          "nullable": false,
          "size": 36,
          "primary": true,
          "value": "javascript:return this.newGuid();"
      },
      {
          "name": "statement_academic_id",
          "title": "Κωδικός τμήματος φοιτητή",
          "description": "Κωδικός τμήματος φοιτητή",
          "type": "Text",
          "size": 15
      },
      {
          "name": "statement_department",
          "title": "Τμήμα φοιτητή",
          "description": "Τμήμα φοιτητή",
          "type": "Text"
      },
      {
          "name": "student_id",
          "title": "Κωδικός φοιτητή",
          "description": "Κωδικός φοιτητή",
          "type": "Integer"
      },
      {
          "name": "am",
          "title": "Αριθμός μητρώου φοιτητή",
          "description": "Αριθμός μητρώου φοιτητή",
          "type": "Text",
          "size": 36
      },
      {
          "name": "surname",
          "title": "Επώνυμο φοιτητή",
          "description": "Επώνυμο φοιτητή",
          "type": "Text",
          "size": 30
      },
      {
          "name": "name",
          "title": "Όνομα φοιτητή",
          "description": "Όνομα φοιτητή",
          "type": "Text",
          "size": 30
      },
      {
          "name": "currentsemester",
          "title": "Τρέχον εξάμηνο φοιτητή",
          "description": "Τρέχον εξάμηνο φοιτητή",
          "type": "Integer"
      },
      {
          "name": "book_id",
          "title": "Κωδικός βιβλίου",
          "description": "Κωδικός βιβλίου",
          "type": "Integer"
      },
      {
          "name": "publishername",
          "title": "Εκδότης βιβλίου",
          "description": "Εκδότης βιβλίου",
          "type": "Text"
      },
      {
          "name": "selection_id_important",
          "title": "Κωδικός επιλογής φοιτητή",
          "description": "Κωδικός επιλογής φοιτητή",
          "type": "Integer"
      },
      {
          "name": "delivered",
          "title": "Παραδόθηκε (t,f)",
          "description": "Παραδόθηκε (t,f)",
          "type": "Text",
          "size": 5
      },
      {
          "name": "delivered_date",
          "title": "Ημερομηνία παράδοσης",
          "description": "Ημερομηνία παράδοσης",
          "type": "DateTime"
      },
      {
          "name": "course_code",
          "title": "Κωδικός μαθήματος",
          "description": "Κωδικός μαθήματος",
          "type": "Text"
      },
      {
          "name": "course_title",
          "title": "Τίτλος μαθήματος",
          "description": "Τίτλος μαθήματος",
          "type": "Text",
          "size": 150
      },
      {
          "name": "course_academic_id",
          "title": "Κωδικός τμήματος μαθήματος",
          "description": "Κωδικός τμήματος μαθήματος",
          "type": "Text",
          "size": 15
      },
      {
          "name": "courseClass",
          "title": "Τάξη",
          "description": "Τάξη μαθήματος",
          "type": "CourseClass",
          "nullable": false,
          "editable": false,
          "readonly": true
      },
      {
          "name": "student",
          "title": "Φοιτητής",
          "description": "Φοιτητής",
          "type": "Student",
          "nullable": false,
          "editable": false,
          "readonly": true
      }
  ],
  "privileges": [
      {
          "mask": 15,
          "type": "global"
      },
      {
          "mask": 15,
          "type": "global",
          "account": "Administrators"
      },
      {
          "mask": 15,
          "type": "self",
          "account": "Registrar",
          "filter": "student/department eq departments()",
          "scope": [
              "registrar"
          ]
      },
      {
          "mask": 1,
          "type": "self",
          "filter": "student eq student()",
          "account": "Students"
      },
      {
          "mask": 1,
          "type": "self",
          "filter": "courseClass/instructors/instructor eq instructor()",
          "account": "Instructors",
          "scope": [
              "teachers"
          ]
      }
  ]
}
